<?xml version="1.0" encoding="utf-8"?>
<!-- Generator: Adobe Illustrator 21.0.2, SVG Export Plug-In . SVG Version: 6.00 Build 0)  -->
<svg version="1.0" id="White" xmlns="http://www.w3.org/2000/svg" xmlns:xlink="http://www.w3.org/1999/xlink" x="0px" y="0px"
	 width="117.7px" height="226.6px" viewBox="0 0 117.7 226.6" style="enable-background:new 0 0 117.7 226.6;" xml:space="preserve"
	>
<path d="M111.1,123.2l5.2-40.3H76.4V57.2c0-11.7,3.2-19.6,20-19.6l21.3,0v-36C114,1.1,101.3,0,86.6,0C55.8,0,34.8,18.8,34.8,53.2
	v29.7H0v40.3h34.8v103.4h41.6V123.2H111.1z"/>
</svg>
