<?xml version="1.0" encoding="utf-8"?>
<!-- Generator: Adobe Illustrator 21.0.2, SVG Export Plug-In . SVG Version: 6.00 Build 0)  -->
<svg version="1.0" id="Layer_1" xmlns="http://www.w3.org/2000/svg" xmlns:xlink="http://www.w3.org/1999/xlink" x="0px" y="0px"
	 width="16px" height="22.9px" viewBox="-283 989.6 16 22.9" style="enable-background:new -283 989.6 16 22.9;"
	 xml:space="preserve">
<style type="text/css">
	.st0{fill:#5B2B82;}
</style>
<path class="st0" d="M-275,1000.4c-1.6,0-2.9-1.3-2.9-2.9s1.3-2.9,2.9-2.9s2.9,1.3,2.9,2.9S-273.4,1000.4-275,1000.4 M-275,989.6
	c-4.4,0-8,3.6-8,8c0,6,8,14.9,8,14.9s8-8.9,8-14.9C-267,993.2-270.6,989.6-275,989.6z"/>
</svg>
